с 1, 2
именем 1
входного 2, 4
UTF 4
Имейте 3
номеров 3
всех 2
Напишите 1
строк 3
toe 2
файл 2
Этот 2
что 4
кодировке 4
которых 3
текстового 1
содержать 2
слово 3
чтения 1
создания 1
но 2
содержимое 4
таким 1
виду 3
должен 2
представлено 4
а 3
встречается 3
слов 2
файла 1, 2, 4
в 3, 4
каждое 3
расширением 2
и 1
для 1
программу 1
также 3
список 2, 3
из 2
же 1
